<?xml version="1.0" encoding="UTF-8" standalone="no"?>
<svg
   width="1600"
   height="680"
   fill="none"
   version="1.1"
   viewBox="0 0 1600 680"
   id="svg7"
   sodipodi:docname="footer-bg-shape.svg"
   inkscape:version="1.3.2 (091e20ef0f, 2023-11-25)"
   xmlns:inkscape="http://www.inkscape.org/namespaces/inkscape"
   xmlns:sodipodi="http://sodipodi.sourceforge.net/DTD/sodipodi-0.dtd"
   xmlns="http://www.w3.org/2000/svg"
   xmlns:svg="http://www.w3.org/2000/svg">
  <sodipodi:namedview
     id="namedview7"
     pagecolor="#ffffff"
     bordercolor="#000000"
     borderopacity="0.25"
     inkscape:showpageshadow="2"
     inkscape:pageopacity="0.0"
     inkscape:pagecheckerboard="0"
     inkscape:deskcolor="#d1d1d1"
     inkscape:zoom="0.36283417"
     inkscape:cx="800.64125"
     inkscape:cy="340.37588"
     inkscape:window-width="1330"
     inkscape:window-height="708"
     inkscape:window-x="0"
     inkscape:window-y="0"
     inkscape:window-maximized="0"
     inkscape:current-layer="svg7" />
  <defs
     id="defs4">
    <clipPath
       id="clipPath648">
      <rect
         width="1600"
         height="680"
         fill="#fff"
         stop-color="#000000"
         stroke-width=".32319px"
         id="rect1" />
    </clipPath>
    <filter
       id="filter1160"
       x="-0.45566751"
       y="-0.34439631"
       width="1.911335"
       height="1.6887926"
       color-interpolation-filters="sRGB">
      <feGaussianBlur
         stdDeviation="85.513601"
         id="feGaussianBlur1" />
    </filter>
    <filter
       id="filter1164"
       x="-0.3889983"
       y="-1.0211712"
       width="1.7779966"
       height="3.0423423"
       color-interpolation-filters="sRGB">
      <feGaussianBlur
         stdDeviation="72.87073"
         id="feGaussianBlur2" />
    </filter>
    <filter
       id="filter1168"
       x="-0.38451541"
       y="-0.8526898"
       width="1.7690308"
       height="2.7053796"
       color-interpolation-filters="sRGB">
      <feGaussianBlur
         stdDeviation="58.209225"
         id="feGaussianBlur3" />
    </filter>
    <filter
       id="filter1172"
       x="-0.54124046"
       y="-0.26569986"
       width="2.0824809"
       height="1.5313997"
       color-interpolation-filters="sRGB">
      <feGaussianBlur
         stdDeviation="96.388158"
         id="feGaussianBlur4" />
    </filter>
    <clipPath
       clipPathUnits="userSpaceOnUse"
       id="clipPath5">
      <g
         id="g6">
        <rect
           width="1600"
           height="680"
           fill="#ffffff"
           stop-color="#000000"
           stroke-width="0.32319px"
           id="rect5"
           x="0"
           y="0" />
      </g>
    </clipPath>
    <filter
       id="filter1005"
       x="-0.13735931"
       y="-0.56078114"
       width="1.2747186"
       height="2.1215623"
       color-interpolation-filters="sRGB">
      <feGaussianBlur
         stdDeviation="95.064089"
         id="feGaussianBlur1-3" />
    </filter>
    <clipPath
       clipPathUnits="userSpaceOnUse"
       id="clipPath6">
      <g
         id="g7-6">
        <rect
           width="1600"
           height="680"
           fill="#ffffff"
           stop-color="#000000"
           stroke-width="0.32319px"
           id="rect6"
           x="0"
           y="0" />
      </g>
    </clipPath>
    <filter
       id="filter2"
       x="-0.14694951"
       y="-0.66195208"
       width="1.2938991"
       height="2.3239043"
       color-interpolation-filters="sRGB">
      <feGaussianBlur
         stdDeviation="95.064089"
         id="feGaussianBlur2-7" />
    </filter>
  </defs>
  <path
     style="fill:#414559;fill-opacity:0.5"
     d="M 0,286.32896 349.64536,487.68885 699.747,303.47454 1159.8735,514.76319 1600,255.68092 V 680 H 0 Z"
     id="path8"
     sodipodi:nodetypes="cccccccc" />
  <path
     style="fill:#51576d;fill-opacity:0.5"
     d="M 0,414.69697 349.64536,569.19182 699.747,443.47454 1159.8735,557.11244 1600,410.54486 V 680 H 0 Z"
     id="path9"
     sodipodi:nodetypes="cccccccc" />
  <path
     style="fill:#626880;fill-opacity:0.5"
     d="M 0,585.85432 349.64536,630.31905 699.747,603.47454 1159.8735,618.71135 1600,604.12478 V 680 H 0 Z"
     id="path10"
     sodipodi:nodetypes="cccccccc" />
</svg>
